module gitlab.com/nunet/device-management-service

go 1.20

require (
	github.com/docker/cli v20.10.23+incompatible
	github.com/docker/docker v20.10.18+incompatible
	github.com/ethereum/go-ethereum v1.10.18
	github.com/fivebinaries/go-cardano-serialization v0.0.0-20220907134105-ec9b85086588
	github.com/gin-contrib/cors v1.4.0
	github.com/gin-gonic/gin v1.9.1
	github.com/gorilla/websocket v1.5.0
	github.com/libp2p/go-libp2p v0.31.0
	github.com/libp2p/go-libp2p-kad-dht v0.22.0
	github.com/multiformats/go-multiaddr v0.11.0
	github.com/robfig/cron/v3 v3.0.1
	github.com/shirou/gopsutil v3.21.11+incompatible
	github.com/spf13/afero v1.10.0
	github.com/stretchr/testify v1.8.4
	github.com/swaggo/files v0.0.0-20220728132757-551d4a08d97a
	github.com/swaggo/gin-swagger v1.3.2
	github.com/swaggo/swag v1.16.1
	github.com/tyler-smith/go-bip39 v1.1.0
	github.com/uptrace/opentelemetry-go-extra/otelgorm v0.1.2
	github.com/whyrusleeping/multiaddr-filter v0.0.0-20160516205228-e903e4adabd7
	go.opentelemetry.io/contrib/instrumentation/github.com/gin-gonic/gin/otelgin v0.39.0
	go.opentelemetry.io/otel v1.14.0
	go.opentelemetry.io/otel/exporters/otlp/otlptrace v1.13.0
	go.opentelemetry.io/otel/exporters/otlp/otlptrace/otlptracegrpc v1.13.0
	go.opentelemetry.io/otel/sdk v1.14.0
	go.opentelemetry.io/otel/trace v1.14.0
	go.uber.org/zap v1.25.0
	google.golang.org/grpc v1.58.3
	google.golang.org/protobuf v1.31.0
	gorm.io/driver/sqlite v1.1.4
	gorm.io/gorm v1.21.16
)

replace gorm.io/gorm => gorm.io/gorm v1.23.8

require (
	github.com/KyleBanks/depth v1.2.1 // indirect
	github.com/Microsoft/go-winio v0.5.2 // indirect
	github.com/StackExchange/wmi v1.2.1 // indirect
	github.com/benbjohnson/clock v1.3.5 // indirect
	github.com/beorn7/perks v1.0.1 // indirect
	github.com/btcsuite/btcd/btcec/v2 v2.2.0 // indirect
	github.com/btcsuite/btcd/chaincfg/chainhash v1.0.2 // indirect
	github.com/btcsuite/btcutil v1.0.2 // indirect
	github.com/bytedance/sonic v1.9.2 // indirect
	github.com/cenkalti/backoff/v4 v4.2.0 // indirect
	github.com/cespare/xxhash/v2 v2.2.0 // indirect
	github.com/chenzhuoyu/base64x v0.0.0-20221115062448-fe3a3abad311 // indirect
	github.com/containerd/cgroups v1.1.0 // indirect
	github.com/coreos/go-systemd/v22 v22.5.0 // indirect
	github.com/coreos/pkg v0.0.0-20230601102743-20bbbf26f4d8 // indirect
	github.com/davecgh/go-spew v1.1.2-0.20180830191138-d8f796af33cc // indirect
	github.com/davidlazar/go-crypto v0.0.0-20200604182044-b73af7476f6c // indirect
	github.com/decred/dcrd/dcrec/secp256k1/v4 v4.2.0 // indirect
	github.com/docker/distribution v2.8.1+incompatible // indirect
	github.com/docker/go-connections v0.4.0 // indirect
	github.com/docker/go-units v0.5.0 // indirect
	github.com/dustin/go-humanize v1.0.1
	github.com/elastic/elastic-transport-go/v8 v8.0.0-20230329154755-1a3c63de0db6 // indirect
	github.com/elastic/gosigar v0.14.2 // indirect
	github.com/flynn/noise v1.0.0 // indirect
	github.com/francoispqt/gojay v1.2.13 // indirect
	github.com/fsnotify/fsnotify v1.6.0 // indirect
	github.com/fxamacker/cbor/v2 v2.4.0 // indirect
	github.com/gabriel-vasile/mimetype v1.4.2 // indirect
	github.com/ghodss/yaml v1.0.0 // indirect
	github.com/gin-contrib/sse v0.1.0 // indirect
	github.com/go-logr/logr v1.2.4 // indirect
	github.com/go-logr/stdr v1.2.2 // indirect
	github.com/go-ole/go-ole v1.2.6 // indirect
	github.com/go-openapi/jsonpointer v0.20.0 // indirect
	github.com/go-openapi/jsonreference v0.20.2 // indirect
	github.com/go-openapi/spec v0.20.9 // indirect
	github.com/go-openapi/swag v0.22.4 // indirect
	github.com/go-playground/locales v0.14.1 // indirect
	github.com/go-playground/universal-translator v0.18.1 // indirect
	github.com/go-playground/validator/v10 v10.14.0 // indirect
	github.com/go-task/slim-sprig v0.0.0-20230315185526-52ccab3ef572 // indirect
	github.com/goccy/go-json v0.10.2 // indirect
	github.com/godbus/dbus/v5 v5.1.0 // indirect
	github.com/gogo/protobuf v1.3.2 // indirect
	github.com/golang/mock v1.6.0 // indirect
	github.com/golang/protobuf v1.5.3 // indirect
	github.com/google/gopacket v1.1.19 // indirect
	github.com/google/pprof v0.0.0-20230817174616-7a8ec2ada47b // indirect
	github.com/grpc-ecosystem/grpc-gateway/v2 v2.18.0 // indirect
	github.com/hashicorp/errwrap v1.1.0 // indirect
	github.com/hashicorp/go-multierror v1.1.1 // indirect
	github.com/hashicorp/golang-lru v0.5.5-0.20210104140557-80c98217689d // indirect
	github.com/hashicorp/golang-lru/v2 v2.0.5 // indirect
	github.com/hashicorp/hcl v1.0.0 // indirect
	github.com/huin/goupnp v1.2.0 // indirect
	github.com/inconshreveable/mousetrap v1.1.0 // indirect
	github.com/ipfs/boxo v0.8.0 // indirect
	github.com/ipfs/go-cid v0.4.1 // indirect
	github.com/ipfs/go-datastore v0.6.0 // indirect
	github.com/ipfs/go-ipfs-util v0.0.2 // indirect
	github.com/ipfs/go-log v1.0.5 // indirect
	github.com/ipfs/go-log/v2 v2.5.1 // indirect
	github.com/ipld/go-ipld-prime v0.20.0 // indirect
	github.com/jackpal/go-nat-pmp v1.0.2 // indirect
	github.com/jaypipes/pcidb v1.0.0 // indirect
	github.com/jbenet/go-temp-err-catcher v0.1.0 // indirect
	github.com/jbenet/goprocess v0.1.4 // indirect
	github.com/jinzhu/inflection v1.0.0 // indirect
	github.com/jinzhu/now v1.1.5 // indirect
	github.com/josharian/intern v1.0.0 // indirect
	github.com/json-iterator/go v1.1.12 // indirect
	github.com/klauspost/compress v1.17.0 // indirect
	github.com/klauspost/cpuid/v2 v2.2.5 // indirect
	github.com/koron/go-ssdp v0.0.4 // indirect
	github.com/leodido/go-urn v1.2.4 // indirect
	github.com/libp2p/go-buffer-pool v0.1.0 // indirect
	github.com/libp2p/go-cidranger v1.1.0 // indirect
	github.com/libp2p/go-flow-metrics v0.1.0 // indirect
	github.com/libp2p/go-libp2p-asn-util v0.3.0 // indirect
	github.com/libp2p/go-libp2p-kbucket v0.5.0 // indirect
	github.com/libp2p/go-libp2p-record v0.2.0 // indirect
	github.com/libp2p/go-msgio v0.3.0 // indirect
	github.com/libp2p/go-nat v0.2.0 // indirect
	github.com/libp2p/go-netroute v0.2.1 // indirect
	github.com/libp2p/go-reuseport v0.4.0 // indirect
	github.com/libp2p/go-yamux/v4 v4.0.1 // indirect
	github.com/magiconair/properties v1.8.7 // indirect
	github.com/mailru/easyjson v0.7.7 // indirect
	github.com/marten-seemann/tcp v0.0.0-20210406111302-dfbc87cc63fd // indirect
	github.com/mattn/go-isatty v0.0.19 // indirect
	github.com/mattn/go-runewidth v0.0.13 // indirect
	github.com/mattn/go-sqlite3 v1.14.17 // indirect
	github.com/matttproud/golang_protobuf_extensions v1.0.4 // indirect
	github.com/miekg/dns v1.1.55 // indirect
	github.com/mikioh/tcpinfo v0.0.0-20190314235526-30a79bb1804b // indirect
	github.com/mikioh/tcpopt v0.0.0-20190314235656-172688c1accc // indirect
	github.com/minio/sha256-simd v1.0.1 // indirect
	github.com/mitchellh/go-homedir v1.1.0 // indirect
	github.com/mitchellh/mapstructure v1.5.0
	github.com/moby/term v0.0.0-20220808134915-39b0c02b01ae // indirect
	github.com/modern-go/concurrent v0.0.0-20180306012644-bacd9c7ef1dd // indirect
	github.com/modern-go/reflect2 v1.0.2 // indirect
	github.com/morikuni/aec v1.0.0 // indirect
	github.com/mr-tron/base58 v1.2.0 // indirect
	github.com/multiformats/go-base32 v0.1.0 // indirect
	github.com/multiformats/go-base36 v0.2.0 // indirect
	github.com/multiformats/go-multiaddr-dns v0.3.1 // indirect
	github.com/multiformats/go-multiaddr-fmt v0.1.0 // indirect
	github.com/multiformats/go-multibase v0.2.0 // indirect
	github.com/multiformats/go-multicodec v0.9.0 // indirect
	github.com/multiformats/go-multihash v0.2.3 // indirect
	github.com/multiformats/go-multistream v0.4.1 // indirect
	github.com/multiformats/go-varint v0.0.7 // indirect
	github.com/olekukonko/tablewriter v0.0.5
	github.com/onsi/ginkgo/v2 v2.11.0 // indirect
	github.com/opencontainers/go-digest v1.0.0 // indirect
	github.com/opencontainers/image-spec v1.0.2
	github.com/opencontainers/runtime-spec v1.1.0 // indirect
	github.com/opentracing/opentracing-go v1.2.0 // indirect
	github.com/pbnjay/memory v0.0.0-20210728143218-7b4eea64cf58 // indirect
	github.com/pelletier/go-toml/v2 v2.1.0 // indirect
	github.com/pkg/errors v0.9.1
	github.com/pmezard/go-difflib v1.0.1-0.20181226105442-5d4384ee4fb2 // indirect
	github.com/polydawn/refmt v0.89.0 // indirect
	github.com/prometheus/client_golang v1.14.0 // indirect
	github.com/prometheus/client_model v0.4.0 // indirect
	github.com/prometheus/common v0.42.0 // indirect
	github.com/prometheus/procfs v0.9.0 // indirect
	github.com/quic-go/qpack v0.4.0 // indirect
	github.com/quic-go/qtls-go1-20 v0.3.3 // indirect
	github.com/quic-go/quic-go v0.38.1 // indirect
	github.com/quic-go/webtransport-go v0.5.3 // indirect
	github.com/raulk/go-watchdog v1.3.0 // indirect
	github.com/rivo/uniseg v0.2.0 // indirect
	github.com/rogpeppe/go-internal v1.11.0 // indirect
	github.com/sagikazarmark/locafero v0.3.0 // indirect
	github.com/sagikazarmark/slog-shim v0.1.0 // indirect
	github.com/sirupsen/logrus v1.8.1 // indirect
	github.com/sourcegraph/conc v0.3.0 // indirect
	github.com/spaolacci/murmur3 v1.1.0 // indirect
	github.com/spf13/cast v1.5.1 // indirect
	github.com/spf13/pflag v1.0.5
	github.com/subosito/gotenv v1.6.0 // indirect
	github.com/tklauser/go-sysconf v0.3.10 // indirect
	github.com/tklauser/numcpus v0.4.0 // indirect
	github.com/twitchyliquid64/golang-asm v0.15.1 // indirect
	github.com/ugorji/go/codec v1.2.11 // indirect
	github.com/uptrace/opentelemetry-go-extra/otelsql v0.1.21 // indirect
	github.com/uptrace/opentelemetry-go-extra/otelutil v0.1.21 // indirect
	github.com/whyrusleeping/go-keyspace v0.0.0-20160322163242-5b898ac5add1 // indirect
	github.com/x448/float16 v0.8.4 // indirect
	github.com/yusufpapurcu/wmi v1.2.2 // indirect
	go.opencensus.io v0.24.0 // indirect
	go.opentelemetry.io/otel/exporters/otlp/internal/retry v1.13.0 // indirect
	go.opentelemetry.io/otel/metric v0.36.0 // indirect
	go.opentelemetry.io/proto/otlp v0.19.0 // indirect
	go.uber.org/dig v1.17.0 // indirect
	go.uber.org/fx v1.20.0 // indirect
	go.uber.org/multierr v1.11.0
	golang.org/x/arch v0.3.0 // indirect
	golang.org/x/crypto v0.13.0 // indirect
	golang.org/x/exp v0.0.0-20230905200255-921286631fa9 // indirect
	golang.org/x/mod v0.12.0 // indirect
	golang.org/x/net v0.15.0
	golang.org/x/sync v0.3.0 // indirect
	golang.org/x/sys v0.12.0 // indirect
	golang.org/x/text v0.13.0 // indirect
	golang.org/x/tools v0.13.0 // indirect
	google.golang.org/genproto/googleapis/api v0.0.0-20230913181813-007df8e322eb // indirect
	google.golang.org/genproto/googleapis/rpc v0.0.0-20230920204549-e6e6cdab5c13 // indirect
	gopkg.in/ini.v1 v1.67.0 // indirect
	gopkg.in/yaml.v2 v2.4.0 // indirect
	gopkg.in/yaml.v3 v3.0.1 // indirect
	gotest.tools/v3 v3.3.0 // indirect
	howett.net/plist v1.0.0 // indirect
	lukechampine.com/blake3 v1.2.1 // indirect
)

require (
	github.com/KyleBanks/dockerstats v0.0.0-20180213183355-b5fec062e953
	github.com/NVIDIA/go-nvml v0.12.0-1
	github.com/buger/jsonparser v1.1.1
	github.com/coreos/go-systemd v0.0.0-20190321100706-95778dfbb74e
	github.com/elastic/go-elasticsearch/v8 v8.8.0
	github.com/google/uuid v1.3.1
	github.com/jaypipes/ghw v0.12.0
	github.com/libp2p/go-libp2p-pubsub v0.9.3
	github.com/shoenig/go-m1cpu v0.1.6
	github.com/spf13/cobra v1.7.0
	github.com/spf13/viper v1.17.0
	github.com/uptrace/opentelemetry-go-extra/otelzap v0.1.21
)

require (
	github.com/aws/aws-sdk-go-v2 v1.26.1
	github.com/aws/aws-sdk-go-v2/config v1.27.11
	github.com/aws/aws-sdk-go-v2/feature/s3/manager v1.16.15
	github.com/aws/aws-sdk-go-v2/service/s3 v1.53.1
	github.com/cosmos/btcutil v1.0.5
	github.com/fatih/structs v1.1.0
)

require (
	github.com/firecracker-microvm/firecracker-go-sdk v1.0.0
	github.com/iancoleman/strcase v0.3.0
	github.com/jmespath/go-jmespath v0.4.0 // indirect
	github.com/ostafen/clover/v2 v2.0.0-alpha.3
)

require (
	github.com/Azure/go-ansiterm v0.0.0-20210617225240-d185dfc1b5a1 // indirect
	github.com/asaskevich/govalidator v0.0.0-20210307081110-f21760c49a8d // indirect
	github.com/aws/aws-sdk-go-v2/aws/protocol/eventstream v1.6.2 // indirect
	github.com/aws/aws-sdk-go-v2/credentials v1.17.11 // indirect
	github.com/aws/aws-sdk-go-v2/feature/ec2/imds v1.16.1 // indirect
	github.com/aws/aws-sdk-go-v2/internal/configsources v1.3.5 // indirect
	github.com/aws/aws-sdk-go-v2/internal/endpoints/v2 v2.6.5 // indirect
	github.com/aws/aws-sdk-go-v2/internal/ini v1.8.0 // indirect
	github.com/aws/aws-sdk-go-v2/internal/v4a v1.3.5 // indirect
	github.com/aws/aws-sdk-go-v2/service/internal/accept-encoding v1.11.2 // indirect
	github.com/aws/aws-sdk-go-v2/service/internal/checksum v1.3.7 // indirect
	github.com/aws/aws-sdk-go-v2/service/internal/presigned-url v1.11.7 // indirect
	github.com/aws/aws-sdk-go-v2/service/internal/s3shared v1.17.5 // indirect
	github.com/aws/aws-sdk-go-v2/service/sso v1.20.5 // indirect
	github.com/aws/aws-sdk-go-v2/service/ssooidc v1.23.4 // indirect
	github.com/aws/aws-sdk-go-v2/service/sts v1.28.6 // indirect
	github.com/aws/smithy-go v1.20.2 // indirect
	github.com/boumenot/gocover-cobertura v1.2.0 // indirect
	github.com/cespare/xxhash v1.1.0 // indirect
	github.com/containerd/fifo v1.0.0 // indirect
	github.com/containernetworking/cni v1.0.1 // indirect
	github.com/containernetworking/plugins v1.0.1 // indirect
	github.com/dgraph-io/badger/v3 v3.2103.2 // indirect
	github.com/dgraph-io/ristretto v0.1.0 // indirect
	github.com/go-openapi/analysis v0.21.2 // indirect
	github.com/go-openapi/errors v0.20.2 // indirect
	github.com/go-openapi/loads v0.21.1 // indirect
	github.com/go-openapi/runtime v0.24.0 // indirect
	github.com/go-openapi/strfmt v0.21.2 // indirect
	github.com/go-openapi/validate v0.22.0 // indirect
	github.com/go-stack/stack v1.8.1 // indirect
	github.com/golang/glog v1.1.0 // indirect
	github.com/golang/groupcache v0.0.0-20210331224755-41bb18bfe9da // indirect
	github.com/golang/snappy v0.0.4 // indirect
	github.com/google/flatbuffers v2.0.6+incompatible // indirect
	github.com/google/orderedcode v0.0.1 // indirect
	github.com/oklog/ulid v1.3.1 // indirect
	github.com/satori/go.uuid v1.2.0 // indirect
	github.com/vishvananda/netlink v1.1.1-0.20210330154013-f5de75959ad5 // indirect
	github.com/vishvananda/netns v0.0.0-20210104183010-2eb08e3e575f // indirect
	github.com/vmihailenco/msgpack/v5 v5.3.5 // indirect
	github.com/vmihailenco/tagparser/v2 v2.0.0 // indirect
	go.etcd.io/bbolt v1.3.6 // indirect
	go.mongodb.org/mongo-driver v1.8.3 // indirect
)
